Math 437 Project – Home
…
Finally, the dataset doesn’t account for career stages or fighter rankings. Fights between debuting athletes may look very different statistically from fights between top contenders, but the model treats all of them the same unless filtered by criteria like weight class or fight type. These limitations highlight the importance of interpreting model results carefully and being transparent about what the data can and cannot reveal.

Data Wrangling (Optional Section)

ufc_recent <- ufc |> slice_head(n = 4441)
# fights from 2015 onward, decided to focus on the "modern" era...rules up-to-date, less missing/incomplete data. also more "recent"

#Missingness summary
#computes the percentage of missing values for each column in dataset
#summary shows the exact number of missing values (n_miss) and the percentage of missing values (pct_miss) for each variable/column.

ufc_recent |>
  miss_var_summary()

# A tibble: 95 × 3
   variable   n_miss pct_miss
   <chr>       <int>    <num>
 1 reach_diff    143    3.22 
 2 b_reach        99    2.23 
 3 r_reach        44    0.991
 4 referee        24    0.540
 5 b_stance       16    0.360
 6 r_stance        5    0.113
 7 event_name      0    0    
 8 r_fighter       0    0    
 9 b_fighter       0    0    
10 winner          0    0    
# ℹ 85 more rows
…
